<?xml version="1.0" encoding="utf-8"?>
<!-- Generator: Adobe Illustrator 25.1.0, SVG Export Plug-In . SVG Version: 6.00 Build 0)  -->
<svg version="1.1" id="Layer_1" xmlns="http://www.w3.org/2000/svg" xmlns:xlink="http://www.w3.org/1999/xlink" x="0px" y="0px"
	 viewBox="0 0 1000 1000" style="enable-background:new 0 0 1000 1000;" xml:space="preserve">
<style type="text/css">
	.st0{fill:#62C3A6;}
</style>
<path class="st0" d="M828.1,62.5H171.9c-30.2,0-54.7,24.5-54.7,54.7v765.6c0,30.3,24.5,54.7,54.7,54.7h656.2
	c30.2,0,54.7-24.5,54.7-54.7V117.2C882.8,87,858.3,62.5,828.1,62.5L828.1,62.5z M639.9,152.1h158.5v55.1H639.9V152.1z M199,152.1
	h158.5v55.1H199V152.1z M820.1,289.8v587h0.1H179.8v-587 M268.1,442.7h468.1c15.3,0,27.8-12.6,27.8-28.2s-12.4-28.2-27.8-28.2H268.1
	c-15.3,0-27.7,12.6-27.7,28.2S252.7,442.7,268.1,442.7L268.1,442.7z M268.1,559.4h468.1c15.3,0,27.8-12.6,27.8-28.2
	S751.6,503,736.2,503H268.1c-15.3,0-27.7,12.6-27.7,28.2S252.7,559.4,268.1,559.4L268.1,559.4z M268.1,676h468.1
	c15.3,0,27.8-12.6,27.8-28.2s-12.4-28.2-27.8-28.2H268.1c-15.3,0-27.7,12.6-27.7,28.2S252.7,676,268.1,676L268.1,676z M268.1,792.8
	h468.1c15.3,0,27.8-12.6,27.8-28.2s-12.4-28.2-27.8-28.2H268.1c-15.3,0-27.7,12.6-27.7,28.2S252.7,792.8,268.1,792.8L268.1,792.8z"
	/>
</svg>
