<?xml version="1.0" encoding="utf-8"?>
<!-- Generator: Adobe Illustrator 25.1.0, SVG Export Plug-In . SVG Version: 6.00 Build 0)  -->
<svg version="1.1" id="Layer_1" xmlns="http://www.w3.org/2000/svg" xmlns:xlink="http://www.w3.org/1999/xlink" x="0px" y="0px"
	 viewBox="0 0 1000 1000" style="enable-background:new 0 0 1000 1000;" xml:space="preserve">
<style type="text/css">
	.st0{fill:#0F75BC;}
</style>
<path class="st0" d="M818.4,747.4c-2.9-6.5-3.5-16-1.1-22.7c18.7-53,37.8-105.7,57.7-158.4c21.2-55.9,37.7-112.1,29.4-173.2
	c-9.4-69.4-37.8-129.4-89.1-176.9c-25-23.1-54.3-41.2-83.3-62.8c2.2-6.1,5.9-15.7,9.4-25.3c5.8-15.8,1.3-28.2-12-33.1
	c-13.7-5-25.1,0.7-31.5,16c-4.2,9.9-7.9,19.8-12,30c-38.7-9.5-76.9-13.3-115.7-7.7c-115.6,16.6-199,77.2-244.1,185.3
	c-27.6,66.5-50.4,135-74.9,202.7c-3,8.4-7.7,13.3-15.8,16.9c-41.1,18.4-81.9,37.4-123,56.1c-11,4.9-19.2,11.9-18.9,24.9
	c0.3,13.5,9.8,18.9,20.9,22.9c76.7,27.5,153.2,55.3,230.1,82.3c11.5,4.1,15.5,8.6,14.9,21.4c-3.9,85.4,76.2,149,159,127.3
	c33.6-8.7,59.1-28.4,78.4-57.6c4,1.4,7.6,2.7,11.3,3.9c77.9,27.9,155.8,55.8,233.8,83.9c11.7,4.2,22.5,6,32.2-4
	c10-10.4,5.9-21.1,0.7-32.1C855.5,827.6,836.4,787.7,818.4,747.4L818.4,747.4z M465.7,827.9c-37.1-10.7-61.6-44-59-81.9
	c48.5,17.3,96.1,34.3,143.8,51.3C536.8,823.3,497.8,837.2,465.7,827.9L465.7,827.9z"/>
</svg>
